[gd_scene load_steps=4 format=2]

[ext_resource path="res://scripts/Tutorial.gd" type="Script" id=1]
[ext_resource path="res://fonts/big_dynamicfont.tres" type="DynamicFont" id=2]
[ext_resource path="res://imports/tutorialplaykeep.png" type="Texture" id=3]

[node name="Tutorial" type="Control"]
anchor_right = 1.0
anchor_bottom = 1.0
script = ExtResource( 1 )
__meta__ = {
"_edit_use_anchors_": false
}

[node name="StageTimer" type="Timer" parent="."]
wait_time = 60.0

[node name="tut1Background" type="ColorRect" parent="."]
margin_right = 1920.0
margin_bottom = 1080.0
color = Color( 0, 0, 0, 1 )
__meta__ = {
"_edit_use_anchors_": false
}

[node name="TextureRect" type="TextureRect" parent="."]
margin_left = 550.0
margin_top = 300.0
margin_right = 1910.0
margin_bottom = 1068.0
texture = ExtResource( 3 )
__meta__ = {
"_edit_use_anchors_": false
}

[node name="tut1Firstlabel" type="Label" parent="."]
margin_right = 1907.0
margin_bottom = 189.0
custom_fonts/font = ExtResource( 2 )
text = "This is a very old game that was played by sailors as a means of making decisions or as a way of gambling.
To play, each player takes 3 turns rolling 5 dice. Ties result in no winner."
autowrap = true
__meta__ = {
"_edit_use_anchors_": false
}

[node name="tut1Secondlabel" type="Label" parent="."]
margin_top = 180.0
margin_right = 526.0
margin_bottom = 1047.0
custom_fonts/font = ExtResource( 2 )
text = "You must roll a 6 for a ship, a 5 for a captain, and a 4 for a crew, in that order.
If you manage to obtain them, the last two dice are your \"cargo\", or your score.
If you have a ship, captain, and crew, you may keep your dice at any time, rather than roll, but beware, they that roll \"midnight\" (12) instantly win!"
autowrap = true
__meta__ = {
"_edit_use_anchors_": false
}

[node name="tut1Thirdlabel" type="Label" parent="."]
margin_left = 1533.89
margin_top = 886.778
margin_right = 1768.89
margin_bottom = 941.778
custom_fonts/font = ExtResource( 2 )
text = "Keep   Roll"
__meta__ = {
"_edit_use_anchors_": false
}

[node name="tut1Fourthlabel" type="Label" parent="."]
margin_left = 946.695
margin_top = 403.444
margin_right = 1357.7
margin_bottom = 458.444
custom_fonts/font = ExtResource( 2 )
text = "Ship Captain Crew"
__meta__ = {
"_edit_use_anchors_": false
}

[node name="tutorialButton" type="Button" parent="."]
margin_right = 1920.0
margin_bottom = 1080.0
flat = true
__meta__ = {
"_edit_use_anchors_": false
}
[connection signal="timeout" from="StageTimer" to="." method="_on_StageTimer_timeout"]
[connection signal="pressed" from="tutorialButton" to="." method="_on_tutorialButton_pressed"]
