[gd_resource type="Environment" load_steps=2 format=2]

[sub_resource type="ProceduralSky" id=1]
sky_top_color = Color( 1, 1, 1, 1 )
sky_horizon_color = Color( 0.839216, 0.972549, 0.980392, 1 )
sky_curve = 0.0614718
ground_bottom_color = Color( 0.266667, 0.298039, 0.266667, 1 )
ground_horizon_color = Color( 0.247059, 0.298039, 0.356863, 1 )
ground_curve = 1.00427
sun_color = Color( 0.968627, 0.972549, 0.913725, 1 )

[resource]
background_mode = 2
background_sky = SubResource( 1 )
ambient_light_color = Color( 0.976471, 0.976471, 0.960784, 1 )
